              X       Y
            -----   -----
Point #1    4.000   0.000
Point #2    4.000   7.500
Point #3    7.000   7.500
Point #4    7.000   3.000
Point #5    9.000   0.000
Point #6    7.000   0.000
Point #7    4.000   0.000
