Detailed Investment Report
--------------------------
Begining of Day #1
-------------------
Your balance at beginnig of the day: 5680.8366 Dollars($)
And it equals 10020.9957 Turkish Liras(TL)
Day #1
Yesterday's closing rates:
TL:	0.566893
Euro: 1.318594
Pound:	1.576077
Current Currecy :$
Your profit: 0.00% 

End of Day #1


Begining of Day #2
-------------------
Your balance at beginnig of the day: 5680.8366 Dollars($)
And it equals 9996.0000 Turkish Liras(TL)
Day #2
Yesterday's closing rates:
TL:	0.568311
Euro: 1.312742
Pound:	1.577290
Current Currecy :$
Your profit: -0.04% 

End of Day #2


Begining of Day #3
-------------------
Your balance at beginnig of the day: 5680.8366 Dollars($)
And it equals 9959.0746 Turkish Liras(TL)
Day #3
Yesterday's closing rates:
TL:	0.570418
Euro: 1.312817
Pound:	1.582112
Current Currecy :$
Your profit: -0.04% 

End of Day #3


Begining of Day #4
-------------------
Your balance at beginnig of the day: 5680.8366 Dollars($)
And it equals 9917.0364 Turkish Liras(TL)
Day #4
Yesterday's closing rates:
TL:	0.572836
Euro: 1.316893
Pound:	1.582746
Current Currecy :$
Your profit: -0.04% 

End of Day #4


Begining of Day #5
-------------------
Your balance at beginnig of the day: 5680.8366 Dollars($)
And it equals 9973.8447 Turkish Liras(TL)
Day #5
Yesterday's closing rates:
TL:	0.569573
Euro: 1.305576
Pound:	1.574757
Current Currecy :$
Your profit: -0.04% 

End of Day #5


Begining of Day #6
-------------------
Your balance at beginnig of the day: 9992.0016 Turkish Liras(TL)
Day #6
Yesterday's closing rates:
Euro: 	2.295400
Dollar: 1.748500
Pound:  2.763100
Current Currecy :TL
Your profit: -0.04% 

End of Day #6


Begining of Day #7
-------------------
Your balance at beginnig of the day: 3612.9516 Pounds(£)
And it equals 9981.5015 Turkish Liras(TL)
Day #7
Yesterday's closing rates:
TL:	0.361965
Euro: 0.834763
Dollar:	0.629059
Current Currecy :£
Your profit: -0.08% 

End of Day #7


Begining of Day #8
-------------------
Your balance at beginnig of the day: 4300.4866 Euros(€)
And it equals 9961.6471 Turkish Liras(TL)
Day #8
Yesterday's closing rates:
TL:	0.431704
Dollar: 0.753195
Pound:	1.193447
Current Currecy :€
Your profit: -0.12% 
nEnd of Day #8


Begining of Day #9
-------------------
Your balance at beginnig of the day: 3613.9837 Pounds(£)
And it equals 10015.4330 Turkish Liras(TL)
Day #9
Yesterday's closing rates:
TL:	0.360841
Euro: 0.837730
Dollar:	0.632952
Current Currecy :£
Your profit: -0.16% 

End of Day #9


Begining of Day #10
--------------------
Your balance at beginnig of the day: 3613.9837 Pounds(£)
And it equals 9980.0160 Turkish Liras(TL)
Day #10
Yesterday's closing rates:
TL:	0.362122
Euro: 0.839145
Dollar:	0.632844
Current Currecy :£
Your profit: -0.20% 

End of Day #10


Begining of Day #11
--------------------
Your balance at beginnig of the day: 3613.9837 Pounds(£)
And it equals 10007.4823 Turkish Liras(TL)
Day #11
Yesterday's closing rates:
TL:	0.361128
Euro: 0.837998
Dollar:	0.635622
Current Currecy :£
Your profit: -0.20% 

End of Day #11


Begining of Day #12
--------------------
Your balance at beginnig of the day: 3613.9837 Pounds(£)
And it equals 9936.2868 Turkish Liras(TL)
Day #12
Yesterday's closing rates:
TL:	0.363716
Euro: 0.838074
Dollar:	0.637194
Current Currecy :£
Your profit: -0.20% 

End of Day #12


Begining of Day #13
--------------------
Your balance at beginnig of the day: 3613.9837 Pounds(£)
And it equals 10008.9279 Turkish Liras(TL)
Day #13
Yesterday's closing rates:
TL:	0.361076
Euro: 0.829644
Dollar:	0.638238
Current Currecy :£
Your profit: -0.20% 

End of Day #13


